mapSize(46;31)
tilesets(Office_walls_floors_32x32.png;Office_interiors_shadowless_32x32.png)
map({)
0000000000000000000000000000000000000000000000
0000000000000000000000000000000000000000000000
0000000000000000000000000000000000000000000000
0000000000000000000000000000000000000000000000
0000000000000000000000000000000000000000000000
000000000000xxxxxxxxxxxxxxxxx00000000000000000
000000000000xxxxxxxxxxxxxxxxx00000000000000000
000000000000xxxxxxxxxxxxxxxxx00000000000000000
000000000000xxxxxxxxx0000000x00000000000000000
000000000000xx000xx00xxxx0xxx00000000000000000
000000000000xxxx0xx000000000x00000000000000000
000000000000x00000x000xx0000x00000000000000000
000000000000x0000xx00000000xx00000000000000000
000000000000xx000xxxx0xx0000x00000000000000000
000000000000x000000000000000x00000000000000000
000000000000x000000000000000x00000000000000000
000000000000xx0000000xxxxx0xx00000000000000000
000000000000xxx00xxxxxxxxxxxx00000000000000000
0000000000000000000000000000000000000000000000
0000000000000000000000000000000000000000000000
0000000000000000000000000000000000000000000000
0000000000000000000000000000000000000000000000
0000000000000000000000000000000000000000000000
0000000000000000000000000000000000000000000000
0000000000000000000000000000000000000000000000
0000000000000000000000000000000000000000000000
0000000000000000000000000000000000000000000000
0000000000000000000000000000000000000000000000
0000000000000000000000000000000000000000000000
0000000000000000000000000000000000000000000000
0000000000000000000000000000000000000000000000
}
groundTileset({)
191, 191, 191, 191, 191, 191, 191, 191, 191, 191, 191, 191, 191, 191, 191, 0, 0, 0, 0, 0, 0, 0, 0, 0, 0, 0, 0, 0, 0, 0, 0, 0, 0, 0, 0, 0, 0, 0, 0, 0, 0, 0, 0, 0, 0, 0
191, 191, 191, 191, 191, 191, 191, 191, 191, 191, 191, 191, 191, 191, 191, 191, 0, 0, 0, 0, 0, 0, 0, 0, 0, 0, 0, 0, 0, 0, 0, 0, 0, 0, 0, 0, 0, 0, 0, 0, 0, 0, 0, 0, 0, 0
191, 191, 191, 191, 191, 191, 191, 191, 191, 191, 191, 191, 191, 191, 191, 191, 191, 0, 0, 0, 0, 0, 0, 0, 0, 0, 0, 0, 0, 0, 0, 0, 0, 0, 0, 0, 0, 0, 0, 0, 0, 0, 0, 0, 0, 0
191, 191, 191, 191, 191, 191, 191, 191, 191, 191, 191, 191, 191, 191, 191, 0, 0, 0, 0, 0, 0, 0, 0, 0, 0, 0, 0, 0, 0, 0, 0, 0, 0, 0, 0, 0, 0, 0, 0, 0, 0, 0, 0, 0, 0, 0
191, 191, 191, 191, 191, 191, 191, 191, 191, 191, 191, 191, 191, 191, 191, 191, 0, 0, 0, 0, 0, 0, 0, 0, 0, 0, 0, 0, 0, 0, 0, 0, 0, 0, 0, 0, 0, 0, 0, 0, 0, 0, 0, 0, 0, 0
191, 191, 191, 191, 191, 191, 191, 191, 191, 191, 191, 191, 191, 191, 191, 191, 0, 0, 0, 0, 0, 0, 0, 0, 0, 0, 0, 0, 0, 0, 0, 0, 0, 0, 0, 0, 0, 0, 0, 0, 0, 0, 0, 0, 0, 0
191, 191, 191, 191, 191, 191, 191, 191, 191, 191, 191, 191, 191, 105, 106, 106, 106, 107, 76, 41, 42, 42, 42, 42, 42, 42, 42, 43, 0, 0, 0, 0, 0, 0, 0, 0, 0, 0, 0, 0, 0, 0, 0, 0, 0, 0
191, 191, 191, 191, 191, 191, 191, 191, 191, 191, 191, 191, 191, 121, 122, 122, 122, 123, 92, 57, 58, 58, 58, 58, 58, 58, 58, 59, 0, 0, 0, 0, 0, 0, 0, 0, 0, 0, 0, 0, 0, 0, 0, 0, 0, 0
191, 191, 191, 191, 191, 191, 191, 191, 191, 191, 191, 191, 191, 149, 149, 149, 149, 149, 92, 154, 154, 154, 154, 154, 154, 154, 154, 154, 0, 0, 0, 0, 0, 0, 0, 0, 0, 0, 0, 0, 0, 0, 0, 0, 0, 0
191, 191, 191, 191, 191, 191, 191, 191, 191, 191, 191, 191, 191, 161, 162, 162, 162, 162, 92, 167, 167, 167, 167, 167, 167, 167, 167, 168, 0, 0, 0, 0, 0, 0, 0, 0, 0, 0, 0, 0, 0, 0, 0, 0, 0, 0
191, 191, 191, 191, 191, 191, 191, 191, 191, 191, 191, 191, 191, 161, 162, 162, 162, 162, 92, 167, 167, 167, 167, 167, 167, 167, 167, 168, 0, 0, 0, 0, 0, 0, 0, 0, 0, 0, 0, 0, 0, 0, 0, 0, 0, 0
144, 181, 181, 181, 181, 181, 181, 181, 181, 181, 181, 181, 181, 161, 162, 162, 162, 162, 92, 167, 167, 167, 167, 167, 167, 167, 167, 168, 0, 0, 0, 0, 0, 0, 0, 0, 0, 0, 0, 0, 0, 0, 0, 0, 0, 0
0, 0, 0, 181, 181, 181, 181, 181, 0, 0, 181, 181, 181, 161, 162, 162, 162, 41, 43, 167, 167, 167, 167, 167, 167, 167, 167, 168, 0, 0, 0, 0, 0, 0, 0, 0, 0, 0, 0, 0, 0, 0, 0, 0, 0, 0
0, 0, 0, 0, 0, 181, 181, 0, 0, 0, 0, 0, 181, 161, 162, 162, 162, 57, 59, 167, 167, 167, 167, 167, 167, 167, 167, 168, 0, 0, 0, 0, 0, 0, 0, 0, 0, 0, 0, 0, 0, 0, 0, 0, 0, 0
0, 0, 0, 0, 0, 0, 181, 181, 181, 181, 181, 181, 181, 166, 167, 167, 167, 167, 167, 167, 167, 167, 167, 167, 167, 167, 167, 168, 0, 0, 0, 0, 0, 0, 0, 0, 0, 0, 0, 0, 0, 0, 0, 0, 0, 0
0, 0, 0, 0, 0, 0, 0, 0, 0, 0, 0, 0, 0, 166, 167, 167, 167, 167, 167, 167, 167, 167, 167, 167, 167, 167, 167, 168, 0, 0, 0, 0, 0, 0, 0, 0, 0, 0, 0, 0, 0, 0, 0, 0, 0, 0
0, 0, 0, 0, 0, 0, 0, 0, 0, 0, 0, 0, 0, 182, 183, 183, 183, 183, 183, 183, 183, 183, 183, 183, 183, 183, 183, 184, 0, 0, 0, 0, 0, 0, 0, 0, 0, 0, 0, 0, 0, 0, 0, 0, 0, 0
0, 0, 0, 0, 0, 0, 0, 0, 0, 0, 0, 0, 0, 0, 0, 0, 186, 186, 186, 186, 0, 0, 0, 0, 0, 0, 0, 0, 0, 0, 0, 0, 0, 0, 0, 0, 0, 0, 0, 0, 0, 0, 0, 0, 0, 0
0, 0, 0, 0, 0, 0, 0, 0, 0, 0, 0, 0, 0, 0, 0, 0, 0, 0, 0, 0, 0, 0, 0, 0, 0, 0, 0, 0, 0, 0, 0, 0, 0, 0, 0, 0, 0, 0, 0, 0, 0, 0, 0, 0, 0, 0
0, 0, 0, 0, 0, 0, 0, 0, 0, 0, 0, 0, 0, 0, 0, 0, 0, 0, 0, 0, 0, 0, 0, 0, 0, 0, 0, 0, 0, 0, 0, 0, 0, 0, 0, 0, 0, 0, 0, 0, 0, 0, 0, 0, 0, 0
0, 0, 0, 0, 0, 0, 0, 0, 0, 0, 0, 0, 0, 0, 0, 0, 0, 0, 0, 0, 0, 0, 0, 0, 0, 0, 0, 0, 0, 0, 0, 0, 0, 0, 0, 0, 0, 0, 0, 0, 0, 0, 0, 0, 0, 0
0, 0, 0, 0, 0, 0, 0, 0, 0, 0, 0, 0, 0, 0, 0, 0, 0, 0, 0, 0, 0, 0, 0, 0, 0, 0, 0, 0, 0, 0, 0, 0, 0, 0, 0, 0, 0, 0, 0, 0, 0, 0, 0, 0, 0, 0
0, 0, 0, 0, 0, 0, 0, 0, 0, 0, 0, 0, 0, 0, 0, 0, 0, 0, 0, 0, 0, 0, 0, 0, 0, 0, 0, 0, 0, 0, 0, 0, 0, 0, 0, 0, 0, 0, 0, 0, 0, 0, 0, 0, 0, 0
0, 0, 0, 0, 0, 0, 0, 0, 0, 0, 0, 0, 0, 0, 0, 0, 0, 0, 0, 0, 0, 0, 0, 0, 0, 0, 0, 0, 0, 0, 0, 0, 0, 0, 0, 0, 0, 0, 0, 0, 0, 0, 0, 0, 0, 0
0, 0, 0, 0, 0, 0, 0, 0, 0, 0, 0, 0, 0, 0, 0, 0, 0, 0, 0, 0, 0, 0, 0, 0, 0, 0, 0, 0, 0, 0, 0, 0, 0, 0, 0, 0, 0, 0, 0, 0, 0, 0, 0, 0, 0, 0
0, 0, 0, 0, 0, 0, 0, 0, 0, 0, 0, 0, 0, 0, 0, 0, 0, 0, 0, 0, 0, 0, 0, 0, 0, 0, 0, 0, 0, 0, 0, 0, 0, 0, 0, 0, 0, 0, 0, 0, 0, 0, 0, 0, 0, 0
0, 0, 0, 0, 0, 0, 0, 0, 0, 0, 0, 0, 0, 0, 0, 0, 0, 0, 0, 0, 0, 0, 0, 0, 0, 0, 0, 0, 0, 0, 0, 0, 0, 0, 0, 0, 0, 0, 0, 0, 0, 0, 0, 0, 0, 0
0, 0, 0, 0, 0, 0, 0, 0, 0, 0, 0, 0, 0, 0, 0, 0, 0, 0, 0, 0, 0, 0, 0, 0, 0, 0, 0, 0, 0, 0, 0, 0, 0, 0, 0, 0, 0, 0, 0, 0, 0, 0, 0, 0, 0, 0
0, 0, 0, 0, 0, 0, 0, 0, 0, 0, 0, 0, 0, 0, 0, 0, 0, 0, 0, 0, 0, 0, 0, 0, 0, 0, 0, 0, 0, 0, 0, 0, 0, 0, 0, 0, 0, 0, 0, 0, 0, 0, 0, 0, 0, 0
0, 0, 0, 0, 0, 0, 0, 0, 0, 0, 0, 0, 0, 0, 0, 0, 0, 0, 0, 0, 0, 0, 0, 0, 0, 0, 0, 0, 0, 0, 0, 0, 0, 0, 0, 0, 0, 0, 0, 0, 0, 0, 0, 0, 0, 0
0, 0, 0, 0, 0, 0, 0, 0, 0, 0, 0, 0, 0, 0, 0, 0, 0, 0, 0, 0, 0, 0, 0, 0, 0, 0, 0, 0, 0, 0, 0, 0, 0, 0, 0, 0, 0, 0, 0, 0, 0, 0, 0, 0, 0, 0
}
normalTileset({)
21, 21, 21, 21, 21, 21, 21, 21, 21, 21, 21, 21, 21, 21, 21, 21, 21, 21, 21, 21, 21, 21, 21, 21, 21, 21, 21, 21, 21, 21, 21, 21, 21, 21, 21, 21, 21, 21, 21, 21, 21, 21, 21, 21, 21, 21
21, 21, 21, 21, 21, 21, 21, 21, 21, 21, 21, 21, 21, 21, 21, 21, 21, 21, 21, 21, 21, 21, 21, 21, 21, 21, 21, 21, 21, 21, 21, 21, 21, 21, 21, 21, 21, 21, 21, 21, 21, 21, 21, 21, 21, 21
21, 21, 21, 21, 21, 21, 21, 21, 21, 21, 21, 21, 21, 21, 21, 21, 21, 21, 21, 21, 21, 21, 21, 21, 21, 21, 21, 21, 21, 21, 21, 21, 21, 21, 21, 21, 21, 21, 21, 21, 21, 21, 21, 21, 21, 21
21, 21, 21, 21, 21, 21, 21, 21, 21, 21, 21, 21, 21, 21, 21, 21, 21, 21, 21, 21, 21, 21, 21, 21, 21, 21, 21, 21, 21, 21, 21, 21, 21, 21, 21, 21, 21, 21, 21, 21, 21, 21, 21, 21, 21, 21
21, 21, 21, 21, 21, 21, 21, 21, 21, 21, 21, 21, 21, 21, 21, 21, 21, 21, 21, 21, 21, 21, 21, 21, 21, 21, 21, 21, 21, 21, 21, 21, 21, 21, 21, 21, 21, 21, 21, 21, 21, 21, 21, 21, 21, 21
21, 21, 21, 21, 21, 21, 21, 21, 21, 21, 21, 21, 21, 21, 21, 21, 21, 21, 21, 21, 21, 21, 21, 21, 21, 21, 21, 21, 21, 21, 21, 21, 21, 21, 21, 21, 21, 21, 21, 21, 21, 21, 21, 21, 21, 21
21, 21, 21, 21, 21, 21, 21, 21, 21, 21, 21, 21, 21, 8, 122, 124, 125, 9, 96, 60, 61, 96, 62, 62, 395, 78, 79, 62, 21, 21, 21, 21, 21, 21, 21, 21, 21, 21, 21, 21, 21, 21, 21, 21, 21, 21
21, 21, 21, 21, 21, 21, 21, 21, 21, 21, 21, 21, 21, 30, 144, 146, 147, 31, 96, 82, 83, 475, 387, 387, 478, 100, 101, 96, 21, 21, 21, 21, 21, 21, 96, 96, 21, 21, 21, 21, 21, 21, 21, 21, 21, 21
21, 21, 21, 21, 21, 21, 21, 21, 21, 21, 21, 21, 21, 268, 226, 226, 226, 269, 75, 102, 103, 497, 498, 499, 500, 87, 118, 119, 21, 21, 21, 21, 21, 21, 21, 21, 21, 21, 21, 21, 21, 21, 21, 21, 21, 21
21, 21, 21, 21, 21, 21, 21, 21, 21, 21, 21, 21, 21, 290, 248, 248, 248, 291, 75, 75, 131, 519, 520, 521, 522, 87, 140, 141, 21, 21, 21, 21, 21, 21, 21, 21, 21, 21, 21, 21, 21, 21, 21, 21, 21, 21
21, 21, 21, 21, 21, 21, 21, 21, 21, 21, 21, 21, 21, 312, 75, 75, 75, 313, 75, 87, 376, 87, 380, 381, 87, 360, 360, 304, 21, 21, 21, 21, 21, 21, 21, 21, 21, 21, 21, 21, 21, 21, 21, 21, 21, 21
21, 21, 21, 21, 21, 21, 21, 21, 21, 21, 21, 21, 21, 457, 75, 75, 75, 75, 75, 87, 87, 87, 402, 403, 87, 360, 360, 326, 21, 21, 21, 21, 21, 21, 21, 21, 21, 21, 21, 21, 21, 21, 21, 21, 21, 21
21, 21, 21, 21, 21, 21, 21, 21, 21, 21, 21, 21, 21, 479, 75, 75, 75, 302, 303, 486, 487, 87, 342, 343, 87, 360, 360, 348, 21, 21, 21, 21, 21, 21, 21, 21, 21, 21, 21, 21, 21, 21, 21, 21, 21, 21
21, 21, 21, 21, 21, 21, 21, 21, 21, 21, 21, 21, 21, 501, 75, 75, 75, 324, 325, 508, 509, 87, 364, 365, 87, 416, 416, 373, 21, 21, 21, 21, 21, 21, 21, 21, 21, 21, 21, 21, 21, 21, 21, 21, 21, 21
21, 21, 21, 21, 21, 21, 21, 21, 21, 21, 21, 21, 21, 370, 75, 75, 75, 346, 347, 362, 87, 87, 373, 296, 297, 416, 416, 370, 21, 21, 21, 21, 21, 21, 21, 21, 21, 21, 21, 21, 21, 21, 21, 21, 21, 21
21, 21, 21, 21, 21, 21, 21, 21, 21, 21, 21, 21, 21, 392, 87, 87, 87, 87, 87, 87, 87, 114, 116, 116, 116, 115, 416, 392, 21, 21, 21, 21, 21, 21, 21, 21, 21, 21, 21, 21, 21, 21, 21, 21, 21, 21
21, 21, 21, 21, 21, 21, 21, 21, 21, 21, 21, 21, 21, 414, 87, 126, 127, 87, 87, 87, 87, 136, 138, 138, 138, 137, 76, 414, 21, 21, 21, 21, 21, 21, 21, 21, 21, 21, 21, 21, 21, 21, 21, 21, 21, 21
21, 21, 21, 21, 21, 21, 21, 21, 21, 21, 21, 21, 21, 21, 21, 21, 21, 21, 21, 21, 21, 21, 21, 21, 21, 21, 21, 21, 21, 21, 21, 21, 21, 21, 21, 21, 21, 21, 21, 21, 21, 21, 21, 21, 21, 21
21, 21, 21, 21, 21, 21, 21, 21, 21, 21, 21, 21, 21, 21, 21, 21, 21, 21, 21, 21, 21, 21, 21, 21, 21, 21, 21, 21, 21, 21, 21, 21, 21, 21, 21, 21, 21, 21, 21, 21, 21, 21, 21, 21, 21, 21
21, 21, 21, 21, 21, 21, 21, 21, 21, 21, 21, 21, 21, 21, 21, 21, 21, 21, 21, 21, 21, 21, 21, 21, 21, 21, 21, 21, 21, 21, 21, 21, 21, 21, 21, 21, 21, 21, 21, 21, 21, 21, 21, 21, 21, 21
21, 21, 21, 21, 21, 21, 21, 21, 21, 21, 21, 21, 21, 21, 21, 21, 21, 21, 21, 21, 21, 21, 21, 21, 21, 21, 21, 21, 21, 21, 21, 21, 21, 21, 21, 21, 21, 21, 21, 21, 21, 21, 21, 21, 21, 21
21, 21, 21, 21, 21, 21, 21, 21, 21, 21, 21, 21, 21, 21, 21, 21, 21, 21, 21, 21, 21, 21, 21, 21, 21, 21, 21, 21, 21, 21, 21, 21, 21, 21, 21, 21, 21, 21, 21, 21, 21, 21, 21, 21, 21, 21
21, 21, 21, 21, 21, 21, 21, 21, 21, 21, 21, 21, 21, 21, 21, 21, 21, 21, 21, 21, 21, 21, 21, 21, 21, 21, 21, 21, 21, 21, 21, 21, 21, 21, 21, 21, 21, 21, 21, 21, 21, 21, 21, 21, 21, 21
21, 21, 21, 21, 21, 21, 21, 21, 21, 21, 21, 21, 21, 21, 21, 21, 21, 21, 21, 21, 21, 21, 21, 21, 21, 21, 21, 21, 21, 21, 21, 21, 21, 21, 21, 21, 21, 21, 21, 21, 21, 21, 21, 21, 21, 21
21, 21, 21, 21, 21, 21, 21, 21, 21, 21, 21, 21, 21, 21, 21, 21, 21, 21, 21, 21, 21, 21, 21, 21, 21, 21, 21, 21, 21, 21, 21, 21, 21, 21, 21, 21, 21, 21, 21, 21, 21, 21, 21, 21, 21, 21
21, 21, 21, 21, 21, 21, 21, 21, 21, 21, 21, 21, 21, 21, 21, 21, 21, 21, 21, 21, 21, 21, 21, 21, 21, 21, 21, 21, 21, 21, 21, 21, 21, 21, 21, 21, 21, 21, 21, 21, 21, 21, 21, 21, 21, 21
21, 21, 21, 21, 21, 21, 21, 21, 21, 21, 21, 21, 21, 21, 21, 21, 21, 21, 21, 21, 21, 21, 21, 21, 21, 21, 21, 21, 21, 21, 21, 21, 21, 21, 21, 21, 21, 21, 21, 21, 21, 21, 21, 21, 21, 21
21, 21, 21, 21, 21, 21, 21, 21, 21, 21, 21, 21, 21, 21, 21, 21, 21, 21, 21, 21, 21, 21, 21, 21, 21, 21, 21, 21, 21, 21, 21, 21, 21, 21, 21, 21, 21, 21, 21, 21, 21, 21, 21, 21, 21, 21
21, 21, 21, 21, 21, 21, 21, 21, 21, 21, 21, 21, 21, 21, 21, 21, 21, 21, 21, 21, 21, 21, 21, 21, 21, 21, 21, 21, 21, 21, 21, 21, 21, 21, 21, 21, 21, 21, 21, 21, 21, 21, 21, 21, 21, 21
21, 21, 21, 21, 21, 21, 21, 21, 21, 21, 21, 21, 21, 21, 21, 21, 21, 21, 21, 21, 21, 21, 21, 21, 21, 21, 21, 21, 21, 21, 21, 21, 21, 21, 21, 21, 21, 21, 21, 21, 21, 21, 21, 21, 21, 21
21, 21, 21, 21, 21, 21, 21, 21, 21, 21, 21, 21, 21, 21, 21, 21, 21, 21, 21, 21, 21, 21, 21, 21, 21, 21, 21, 21, 21, 21, 21, 21, 21, 21, 21, 21, 21, 21, 21, 21, 21, 21, 21, 21, 21, 21
}
Textures3eC({)
131, 131, 131, 131, 131, 361, 361, 361, 361, 361, 361, 361, 97, 97, 361, 361, 361, 361, 361, 361, 131, 131, 131, 131, 131, 131, 131, 131, 131, 131, 131, 131, 131, 131, 131, 131, 131, 131, 131, 131, 131, 131, 131, 131, 131, 131
131, 131, 131, 131, 131, 361, 416, 361, 361, 361, 361, 361, 97, 97, 361, 361, 361, 361, 361, 467, 467, 467, 467, 467, 131, 131, 131, 131, 131, 131, 131, 131, 467, 467, 467, 131, 131, 131, 131, 131, 131, 131, 131, 131, 131, 0
131, 131, 131, 131, 362, 362, 416, 361, 361, 361, 361, 361, 361, 97, 97, 361, 361, 361, 361, 361, 467, 467, 467, 467, 467, 467, 467, 467, 467, 467, 467, 467, 467, 131, 131, 131, 131, 131, 131, 131, 131, 131, 131, 131, 131, 131
131, 131, 131, 131, 362, 362, 416, 361, 361, 361, 361, 361, 361, 97, 97, 361, 361, 361, 361, 361, 467, 467, 467, 467, 467, 467, 467, 467, 467, 467, 467, 467, 131, 131, 131, 131, 131, 131, 131, 131, 131, 131, 131, 131, 131, 131
131, 131, 131, 361, 362, 416, 361, 361, 153, 361, 361, 361, 361, 361, 361, 361, 361, 361, 361, 361, 467, 467, 467, 467, 467, 467, 467, 467, 467, 467, 467, 467, 467, 467, 467, 131, 131, 131, 131, 131, 131, 131, 131, 131, 131, 131
362, 131, 361, 361, 361, 416, 361, 153, 362, 98, 98, 65, 65, 361, 361, 361, 361, 361, 361, 361, 467, 467, 467, 467, 467, 467, 467, 467, 467, 467, 467, 467, 467, 467, 467, 131, 131, 131, 131, 131, 131, 131, 131, 131, 131, 0
362, 131, 361, 395, 361, 361, 361, 153, 362, 98, 98, 65, 65, 131, 361, 361, 361, 361, 361, 361, 74, 467, 17, 18, 467, 467, 467, 467, 467, 467, 467, 467, 467, 467, 467, 131, 131, 131, 131, 131, 131, 131, 131, 131, 131, 131
362, 131, 361, 395, 361, 361, 416, 361, 361, 361, 362, 65, 65, 260, 85, 86, 210, 211, 361, 361, 74, 467, 39, 40, 467, 467, 467, 467, 467, 467, 467, 467, 467, 131, 131, 131, 131, 131, 131, 131, 131, 131, 131, 131, 131, 0
362, 361, 131, 395, 361, 361, 416, 361, 361, 361, 361, 65, 65, 282, 107, 108, 232, 233, 361, 361, 467, 467, 467, 467, 467, 467, 467, 467, 467, 467, 467, 467, 467, 467, 467, 467, 131, 131, 131, 131, 131, 131, 131, 131, 131, 131
361, 361, 131, 361, 361, 361, 416, 361, 361, 361, 361, 65, 65, 14, 344, 345, 395, 262, 361, 361, 131, 467, 467, 467, 467, 467, 467, 467, 467, 467, 467, 467, 467, 467, 467, 467, 131, 131, 131, 131, 131, 131, 131, 131, 131, 131
361, 361, 131, 361, 361, 361, 416, 361, 361, 361, 361, 65, 65, 395, 366, 367, 395, 361, 361, 361, 467, 467, 467, 467, 467, 467, 467, 467, 467, 467, 467, 467, 467, 467, 131, 131, 131, 131, 131, 131, 131, 131, 131, 131, 131, 0
361, 361, 131, 361, 361, 361, 361, 361, 361, 361, 361, 361, 361, 361, 361, 361, 361, 361, 361, 361, 467, 467, 467, 467, 467, 467, 467, 467, 467, 467, 467, 467, 467, 467, 131, 131, 131, 131, 131, 131, 131, 131, 131, 131, 131, 131
361, 361, 131, 361, 361, 361, 361, 361, 361, 361, 361, 361, 361, 361, 361, 361, 361, 361, 361, 467, 467, 467, 467, 467, 467, 467, 467, 467, 467, 467, 467, 467, 467, 467, 467, 467, 131, 131, 131, 131, 131, 131, 131, 131, 131, 131
361, 131, 361, 361, 361, 361, 361, 361, 361, 361, 361, 361, 361, 361, 361, 361, 361, 361, 361, 467, 467, 467, 467, 467, 467, 438, 438, 467, 467, 467, 467, 467, 467, 467, 467, 467, 131, 131, 131, 131, 131, 131, 131, 131, 131, 0
361, 131, 131, 131, 361, 361, 361, 361, 361, 361, 361, 361, 361, 361, 361, 361, 467, 467, 467, 467, 467, 284, 467, 373, 300, 301, 438, 438, 467, 467, 467, 467, 467, 467, 467, 467, 131, 131, 131, 131, 131, 131, 131, 131, 131, 0
131, 131, 131, 131, 131, 467, 467, 467, 467, 467, 467, 467, 467, 467, 467, 467, 467, 467, 467, 467, 467, 306, 467, 373, 322, 323, 467, 467, 467, 467, 467, 467, 467, 467, 467, 467, 131, 131, 131, 131, 131, 131, 131, 131, 131, 131
131, 131, 131, 467, 131, 467, 467, 467, 467, 467, 467, 467, 467, 467, 467, 361, 361, 467, 467, 467, 467, 417, 467, 467, 467, 467, 467, 467, 467, 467, 467, 467, 467, 467, 467, 467, 131, 131, 131, 131, 131, 131, 131, 131, 131, 131
131, 131, 131, 467, 467, 467, 467, 467, 467, 467, 467, 467, 467, 467, 467, 21, 21, 21, 467, 467, 467, 417, 467, 467, 467, 467, 467, 467, 467, 467, 467, 467, 467, 467, 467, 467, 131, 131, 131, 131, 131, 131, 131, 131, 131, 0
131, 131, 131, 467, 467, 467, 467, 467, 467, 467, 467, 467, 467, 467, 467, 21, 21, 467, 467, 467, 467, 467, 467, 467, 467, 467, 467, 467, 467, 467, 467, 467, 467, 467, 467, 131, 131, 131, 131, 131, 131, 131, 131, 131, 131, 0
131, 131, 131, 131, 467, 467, 467, 467, 467, 467, 467, 467, 467, 467, 467, 467, 467, 467, 467, 467, 467, 467, 467, 467, 467, 467, 467, 467, 467, 467, 467, 467, 467, 467, 467, 131, 131, 131, 131, 131, 131, 131, 131, 131, 131, 131
131, 131, 131, 131, 467, 467, 467, 467, 467, 467, 467, 467, 467, 467, 467, 467, 467, 467, 467, 467, 467, 131, 131, 131, 131, 131, 131, 131, 131, 131, 131, 131, 131, 131, 131, 131, 131, 131, 131, 131, 131, 131, 131, 131, 131, 0
131, 131, 131, 131, 131, 131, 131, 131, 131, 131, 131, 131, 131, 131, 131, 131, 131, 131, 131, 131, 131, 131, 131, 131, 131, 131, 131, 131, 131, 131, 131, 131, 131, 131, 131, 131, 131, 131, 131, 131, 131, 131, 131, 131, 131, 131
131, 131, 131, 131, 131, 131, 131, 131, 131, 131, 131, 131, 131, 131, 131, 131, 131, 131, 131, 131, 131, 131, 131, 131, 131, 131, 131, 131, 131, 131, 131, 131, 131, 467, 131, 131, 131, 131, 131, 131, 131, 131, 131, 131, 131, 131
131, 131, 131, 131, 131, 131, 131, 131, 131, 131, 131, 131, 131, 131, 131, 131, 131, 131, 131, 131, 131, 131, 131, 131, 131, 131, 131, 131, 131, 131, 131, 131, 131, 131, 131, 131, 131, 131, 131, 131, 131, 131, 131, 131, 131, 131
131, 131, 131, 131, 131, 131, 131, 131, 131, 131, 131, 131, 131, 131, 131, 131, 131, 131, 131, 131, 131, 131, 131, 131, 131, 131, 131, 131, 131, 131, 131, 131, 131, 131, 131, 131, 131, 131, 131, 131, 131, 131, 131, 131, 131, 131
131, 131, 131, 131, 131, 131, 131, 131, 131, 131, 131, 131, 131, 131, 131, 131, 131, 131, 131, 131, 131, 131, 131, 131, 131, 131, 131, 131, 131, 131, 131, 131, 131, 131, 131, 131, 131, 131, 131, 131, 131, 131, 131, 131, 131, 131
131, 131, 131, 131, 131, 131, 131, 131, 131, 131, 131, 131, 131, 131, 131, 131, 131, 131, 131, 131, 131, 131, 131, 131, 131, 131, 131, 131, 131, 131, 131, 131, 131, 131, 131, 131, 131, 131, 131, 131, 131, 131, 131, 131, 131, 131
131, 131, 131, 131, 131, 131, 131, 131, 131, 131, 131, 131, 131, 131, 131, 131, 131, 131, 131, 131, 131, 131, 131, 131, 131, 131, 131, 131, 131, 131, 131, 131, 131, 131, 131, 131, 131, 131, 131, 131, 131, 131, 131, 131, 131, 131
131, 131, 131, 131, 131, 131, 131, 131, 131, 131, 131, 131, 131, 131, 131, 131, 131, 131, 131, 131, 131, 131, 131, 131, 131, 131, 131, 131, 131, 131, 131, 131, 131, 131, 131, 131, 131, 131, 131, 131, 131, 131, 131, 131, 131, 131
131, 131, 131, 131, 131, 131, 131, 131, 131, 131, 131, 131, 131, 131, 131, 131, 131, 131, 131, 131, 131, 131, 131, 131, 131, 131, 131, 131, 131, 131, 131, 131, 131, 131, 131, 131, 131, 131, 131, 131, 131, 131, 131, 131, 131, 131
131, 131, 131, 131, 131, 131, 131, 131, 131, 131, 131, 131, 131, 131, 131, 131, 131, 131, 131, 131, 131, 131, 131, 131, 131, 131, 131, 131, 131, 131, 131, 131, 131, 131, 131, 131, 131, 131, 131, 131, 131, 131, 131, 131, 131, 131
}
overTiles({)
0000000000000000000000000000000000000000000000
0000xxxxxxxx0000000000000000000000000000000000
0xx0xxxxxxxx0xx0000000000000000000000000000000
0xx0000000000000000000000000000000000000000000
000000000xxxx000000000000000000000000000000000
x0000000000xx000000000000000000000000000000000
x000000000000000000000000000000000000000000000
00000000000xx00000000xxxx000000000000000000000
000000x0000xx00000000xxxx0xx000000000000000000
000000x0000000xx000000000000000000000000000000
0000000000000000000000xx000x000000000000000000
0000000000000x0000000000000x000000000000000000
0000000000000x000x0xx0xx0000000000000000000000
0000000000000000000000000000000000000000000000
0000000000000x0000000x0xxx0x000000000000000000
0000000000000x0000000xxxxx0x000000000000000000
0000000000000000000000000000000000000000000000
0000000000000000000000000000000000000000000000
0000000000000000000000000000000000000000000000
0000000000000000000000000000000000000000000000
0000000000000000000000000000000000000000000000
0000000000000000000000000000000000000000000000
0000000000000000000000000000000000000000000000
0000000000000000000000000000000000000000000000
0000000000000000000000000000000000000000000000
0000000000000000000000000000000000000000000000
0000000000000000000000000000000000000000000000
0000000000000000000000000000000000000000000000
0000000000000000000000000000000000000000000000
0000000000000000000000000000000000000000000000
0000000000000000000000000000000000000000000000
}
entity({)
16; 10; assets\PNJs\FemaleTrendy\Idle\Femaletrendy1.png; False
msg(Alors ? Tu vas mieux ?)
msg(En tout cas, comme je te l'ai dit j'ai une piste !)
msg(Le soir de la mort de Maman, bizarrement il n'y avait pas de temoins... Mais !)
msg(Par chance une des cameras de la ville se situe dans notre rue et pourrait avoir filmer les evenements.)
msg(J'ai appeler la police mais elle refuse categoriquement de nous aider..)
msg(Heureusement tous les enregistrements des cameras de la ville sont stockes sur les serveurs de la mairie.)
msg(Est-ce que tu pourrais t'y introduire pour recuperer les enregistrements ?)
}
